void Voice2(wchar_t *s, float f)
{
    2C(0xFA0, s);
    2C(0xFA2);
    2C(0xC8, f);
}

void RadioBegin()
{
2C(0xFA0, "MusenBegin");
}

void RadioEnd()
{
2C(0xFA0, "MusenEnd");
}

void RadioVoice(wchar_t *s, float f)
{
}

void EconomyMode(int i)
{
}

void WaitAiMoveEnd(int i)
{
}

void InitializeCommon()
{
}

void MissionClear_Common(float f)
{
}

void MissionClear()
{
}

void FinalMissionClear()
{
}

void MissionEscapeClear()
{
}

void MissionGameOverEvent()
{
}

void SceneEffect_Snow(float f, float f2, float f3, float f4)
{
}

void SceneEffect_Rain(float f, float f2, float f3, float f4, float f5, float f6)
{
}

void SceneEffect_RainEx(float f, float f2, float f3, float f4, float f5, float f6)
{
}

void SceneEffect_FugitiveDust(float f, float f2, float f3, float f4, float f5, float f6)
{
}

void SceneEffect_Fog(float f, float f2, float f3, float f4, float f5, float f6)
{
}

int CruiseAndRespawn(int id, wchar_t* entityname, wchar_t* routename, float speed)
{
}

void Main()
{
2C(0x11, 0);
2C(0x5);
2C(0x0A);
2C(0x0D, "app:/ui/lyt_HUiMissionCleared.sgo", -1);
2C(0x0D, "app:/ui/lyt_HUiMissionFailed.sgo", -1);
2C(0x0D, "app:/ui/lyt_HUiFailedResult.sgo", -1);
2C(0x0D, "app:/object/e508_carrier.sgo", -1);
2C(0x0E, "app:/Map/ig_Base502.mac", "finecloud", -1);
2C(0x0D, "app:/object/AiArmySoldier_S_AF_Leader.sgo", -1);
2C(0x0D, "app:/object/AiArmySoldier_S_Follower1.sgo", -1);
2C(0x0D, "app:/object/AiArmySoldier_S_Follower2.sgo", -1);
2C(0x0D, "app:/object/AiArmySoldier_S_Follower3.sgo", -1);
2C(0x0D, "app:/Object/AiArmySoldier_AF.sgo", -1);
2C(0x0D, "app:/object/v505_tank_ai.sgo", -1);
2C(0x0D, "app:/object/v504_begaruta_ai.sgo", -1);
2C(0x0D, "app:/Object/GiantAnt01.sgo", -1);
2C(0x10);
2C(0xC);
2C(0x2710);
2C(0xB);
2C(0x64, "app:/Map/ig_Base502.mac", "finecloud");
2C(0x3E8, "プレイヤー");
2C(0x3F2, "小隊01", "app:/object/AiArmySoldier_S_AF_Leader.sgo", 1f);
2C(0x1);
2C(0x3F2, "兵士01", "app:/object/AiArmySoldier_S_Follower1.sgo", 1f);
2C(0x1);
2C(0x3F2, "兵士02", "app:/object/AiArmySoldier_S_Follower2.sgo", 1f);
2C(0x1);
2C(0x3F2, "兵士03", "app:/object/AiArmySoldier_S_Follower3.sgo", 1f);
2C(0x1);
2C(0x3F4, "小隊02", 100.0f, "app:/Object/AiArmySoldier_AF.sgo", 4, 0.6f, 0);
2C(0x3F4, "小隊03", 100.0f, "app:/Object/AiArmySoldier_AF.sgo", 4, 0.6f, 0);
2C(0x3F4, "小隊04", 100.0f, "app:/Object/AiArmySoldier_AF.sgo", 5, 0.6f, 0);
2C(0x3FC, "戦車1", "app:/object/v505_tank_ai.sgo", 1f);
2C(0x1);
2C(0x3FC, "戦車2", "app:/object/v505_tank_ai.sgo", 1f);
2C(0x1);
2C(0x3FC, "戦車3", "app:/object/v505_tank_ai.sgo", 1f);
2C(0x1);
2C(0x3FC, "戦車4", "app:/object/v505_tank_ai.sgo", 1f);
2C(0x1);
2C(0x3FC, "戦車5", "app:/object/v505_tank_ai.sgo", 1f);
2C(0x1);
2C(0x3FC, "戦車6", "app:/object/v505_tank_ai.sgo", 1f);
2C(0x1);
2C(0x3FC, "戦車7", "app:/object/v505_tank_ai.sgo", 1f);
2C(0x1);
2C(0x3FC, "戦車8", "app:/object/v505_tank_ai.sgo", 1f);
2C(0x1);
2C(0x3FC, "戦車9", "app:/object/v505_tank_ai.sgo", 1f);
2C(0x1);
2C(0x3FC, "戦車10", "app:/object/v505_tank_ai.sgo", 1f);
2C(0x1);
2C(0x3FC, "戦車11", "app:/object/v505_tank_ai.sgo", 1f);
2C(0x1);
2C(0x3FC, "戦車12", "app:/object/v505_tank_ai.sgo", 1f);
2C(0x1);
2C(0x3FC, "戦車13", "app:/object/v505_tank_ai.sgo", 1f);
2C(0x1);
2C(0x3FC, "戦車14", "app:/object/v505_tank_ai.sgo", 1f);
2C(0x1);
2C(0x3FC, "戦車15", "app:/object/v505_tank_ai.sgo", 1f);
2C(0x1);
2C(0x3FC, "戦車16", "app:/object/v505_tank_ai.sgo", 1f);
2C(0x1);
2C(0x3FC, "ベガルタ1", "app:/object/v504_begaruta_ai.sgo", 1f);
2C(0x1);
2C(0x3FC, "ベガルタ2", "app:/object/v504_begaruta_ai.sgo", 1f);
2C(0x1);
2C(0x3FC, "ベガルタ3", "app:/object/v504_begaruta_ai.sgo", 1f);
2C(0x1);
2C(0x3FC, "ベガルタ4", "app:/object/v504_begaruta_ai.sgo", 1f);
2C(0x1);
2C(0x3FC, "ベガルタ5", "app:/object/v504_begaruta_ai.sgo", 1f);
2C(0x1);
2C(0x3FC, "ベガルタ6", "app:/object/v504_begaruta_ai.sgo", 1f);
2C(0x1);
2C(0x3FC, "ベガルタ7", "app:/object/v504_begaruta_ai.sgo", 1f);
2C(0x1);
2C(0x3FC, "ベガルタ8", "app:/object/v504_begaruta_ai.sgo", 1f);
2C(0x1);
2C(0x3FC, "ベガルタ9", "app:/object/v504_begaruta_ai.sgo", 1f);
2C(0x1);
2C(0x3FC, "ベガルタ10", "app:/object/v504_begaruta_ai.sgo", 1f);
2C(0x1);
2C(0x3FC, "ベガルタ11", "app:/object/v504_begaruta_ai.sgo", 1f);
2C(0x1);
2C(0x3FC, "ベガルタ12", "app:/object/v504_begaruta_ai.sgo", 1f);
2C(0x1);
2C(0x7D2, "蟻1-1", 100.0f, "app:/Object/GiantAnt01.sgo", 17, 0.65f, 0);
2C(0x7D2, "蟻1-2", 100.0f, "app:/Object/GiantAnt01.sgo", 17, 0.65f, 0);
2C(0x12C, "BGM_E5M09_Heion");
}